<svg width="631" height="631" viewBox="0 0 631 631" fill="none" xmlns="http://www.w3.org/2000/svg">
<path d="M313.331 1.04474C314.702 0.38453 316.298 0.384529 317.669 1.04474L559.998 117.744C561.369 118.404 562.365 119.653 562.704 121.136L622.554 383.358C622.893 384.841 622.537 386.398 621.588 387.588L453.892 597.873C452.943 599.063 451.504 599.756 449.982 599.756H181.018C179.496 599.756 178.057 599.063 177.108 597.873L9.41153 387.588C8.46282 386.398 8.10746 384.841 8.44605 383.358L68.2964 121.136C68.635 119.653 69.6307 118.404 71.0016 117.744L313.331 1.04474Z" fill="#484848"/>
<path d="M382.061 476.074H329.569H265.83L243.983 476.074L229.322 476.074L225.623 476.074C222.156 476.074 218.863 474.554 216.615 471.914L202.377 455.199C201.441 454.1 202.222 452.408 203.665 452.408H262.079C262.08 452.408 262.08 452.408 262.08 452.407V393.244V322.247V244.944V173.276V89.6741V61.1449C262.08 61.1445 262.081 61.1442 262.081 61.1444C272.761 66.9105 282.511 74.2511 291.005 82.9196L304.718 96.9138C311.459 103.793 317.687 111.159 323.35 118.95C343.399 146.533 355.939 178.85 359.742 212.737L365.979 268.303C367.72 283.821 371.273 299.082 376.565 313.774L412.582 413.764C412.583 413.765 412.582 413.766 412.581 413.766L273.33 413.671C273.329 413.671 273.329 413.671 273.329 413.672L273.329 413.672V452.407C273.329 452.408 273.329 452.408 273.33 452.408H442.051H510.322H522.539C523.908 452.408 524.651 454.008 523.769 455.054L509.592 471.869C507.343 474.535 504.033 476.074 500.545 476.074L493.218 476.074H469.394H444.216H419.555H382.061Z" fill="#5972CB"/>
<path d="M357.584 507.517H304.754H240.603L218.615 507.517L203.86 507.517L200.385 507.517C196.756 507.517 193.328 505.853 191.083 503.001L177.261 485.441C176.75 484.792 177.212 483.84 178.038 483.84H236.829C236.829 483.84 236.83 483.84 236.83 483.839V424.647V353.616V276.275V204.572V120.93V92.3867C236.83 92.3862 236.83 92.3859 236.831 92.3862C247.579 98.1552 257.399 105.507 265.963 114.194L279.778 128.209C286.539 135.068 292.787 142.414 298.471 150.188C318.661 177.801 331.299 210.203 335.137 244.194L341.385 299.534C343.146 315.133 346.738 330.471 352.086 345.231L388.302 445.177C388.302 445.178 388.302 445.178 388.301 445.178L248.152 445.084C248.151 445.084 248.151 445.084 248.151 445.085V483.839C248.151 483.84 248.151 483.84 248.152 483.84H417.961H486.672H498.968C500.174 483.84 500.835 485.246 500.065 486.174L485.919 503.235C483.67 505.948 480.329 507.517 476.805 507.517L469.457 507.517H445.48H420.14H395.319H357.584Z" fill="#5FC8A2"/>
<path d="M333.816 538.377H281.047H216.971L195.009 538.377L180.271 538.377L176.724 538.377C173.142 538.377 169.753 536.755 167.506 533.965L153.555 516.638C152.93 515.862 153.482 514.708 154.479 514.708H213.201C213.202 514.708 213.202 514.707 213.202 514.707V455.534V384.525V307.209V235.528V151.912V123.378C213.202 123.378 213.203 123.378 213.203 123.378C223.939 129.145 233.747 136.493 242.298 145.176L256.096 159.184C262.852 166.044 269.095 173.391 274.775 181.166C294.94 208.768 307.561 241.15 311.393 275.117L317.637 330.47C319.396 346.058 322.982 361.385 328.322 376.134L364.498 476.057C364.499 476.058 364.498 476.058 364.497 476.058L224.511 475.964C224.51 475.964 224.51 475.964 224.51 475.965V514.707C224.51 514.707 224.51 514.708 224.511 514.708H394.122H462.754H475.036C476.217 514.708 476.865 516.083 476.113 516.993L462.005 534.078C459.757 536.801 456.41 538.377 452.879 538.377L445.559 538.377H421.609H396.299H371.507H333.816Z" fill="white"/>
</svg>
